[
  {"id": "age-restriction", "term": "Age restriction"},
  {"id": "extra", "term": "Extra screening type"},
  {"id": "genres", "term": "Genres"},
  {"id": "screening-addons", "term": "Screening addons"},
  {"id": "screening-type", "term": "Screening type"},
  {"id": "special-type", "term": "Special type"}
]